<?xml version="1.0" encoding="UTF-8" standalone="no"?>
<svg
   xmlns:dc="http://purl.org/dc/elements/1.1/"
   xmlns:cc="http://creativecommons.org/ns#"
   xmlns:rdf="http://www.w3.org/1999/02/22-rdf-syntax-ns#"
   xmlns:svg="http://www.w3.org/2000/svg"
   xmlns="http://www.w3.org/2000/svg"
   id="svg8"
   version="1.1"
   viewBox="0 0 242.49001 242.49001"
   height="242.49001mm"
   width="242.49001mm">
  <defs
     id="defs2" />
  <metadata
     id="metadata5">
    <rdf:RDF>
      <cc:Work
         rdf:about="">
        <dc:format>image/svg+xml</dc:format>
        <dc:type
           rdf:resource="http://purl.org/dc/dcmitype/StillImage" />
        <dc:title></dc:title>
      </cc:Work>
    </rdf:RDF>
  </metadata>
  <g
     transform="translate(0,-54.509996)"
     style="display:inline"
     id="layer1">
    <path
       d="m 226.24498,236.37679 -105,60.62178 -105.000004,-60.62179 0,-121.24356 105.000004,-60.621776 105,60.621776 z"
       id="path3752"
       style="fill:#fff6d5;stroke-width:0.27608964" />
    <path
       id="path4658"
       d="m 196.24494,247.92381 -74.99999,-72.16879 99.99999,28.86752 z"
       style="opacity:1;fill:#000000;stroke:#000000;stroke-width:1;stroke-miterlimit:4;stroke-dasharray:none" />
    <path
       id="path829"
       d="M 139.99495,244.31537 64.994951,201.0141 84.194268,152.98026 119.86016,174.96348 Z"
       style="opacity:1;fill:#000000;stroke:#000000;stroke-width:1.01702929;stroke-miterlimit:4;stroke-dasharray:none" />
    <path
       id="path829-3-6"
       d="m 156.43012,151.16417 -35.18516,24.59086 -1e-5,-72.16878 v 2.88675 z"
       style="display:inline;opacity:1;fill:#000000;stroke:#000000;stroke-width:1;stroke-miterlimit:4;stroke-dasharray:none" />
    <path
       id="path829-3"
       d="m 121.24496,175.75503 -38.956695,-22.49166 74.141855,-2.0992 3.27636,24.59086 z"
       style="display:inline;opacity:1;fill:#000000;stroke:#000000;stroke-width:1;stroke-miterlimit:4;stroke-dasharray:none" />
    <g
       transform="translate(16.244978,-0.00143563)"
       id="g4593">
      <path
         style="display:inline;fill:none;stroke:#000000;stroke-width:5;stroke-linecap:butt;stroke-linejoin:miter;stroke-miterlimit:4;stroke-dasharray:none;stroke-opacity:1"
         d="M 4.9999984,118.02143 192.49996,226.27461"
         id="path4629" />
    </g>
    <path
       id="path868-7"
       d="m 122.04199,76.311457 40.86962,27.274783 H 79.57828 Z"
       style="display:inline;opacity:1;fill:#000000;stroke:#000000;stroke-width:1;stroke-miterlimit:4;stroke-dasharray:none;stroke-opacity:1" />
    <path
       id="rect888"
       d="M 71.244949,146.8875 137.0954,128.67092 v 6.87916 l -52.901131,17.43018 z"
       style="opacity:1;fill:#000000;stroke:#000000;stroke-width:1;stroke-miterlimit:4;stroke-dasharray:none;stroke-opacity:1" />
    <path
       id="path868"
       d="m 120.83095,61.422929 17.8732,42.163231 -36.24462,8e-5 z"
       style="opacity:1;fill:#000000;stroke:#000000;stroke-width:1;stroke-miterlimit:4;stroke-dasharray:none;stroke-opacity:1" />
    <ellipse
       ry="16.668749"
       rx="17.727083"
       cy="106.47299"
       cx="121.24495"
       id="path862"
       style="opacity:1;fill:#000000;stroke:#000000;stroke-width:1;stroke-miterlimit:4;stroke-dasharray:none" />
  </g>
  <g
     transform="translate(0,-54.509996)"
     style="display:none"
     id="layer2">
    <path
       id="path3752-7"
       d="m 221.24494,233.49005 -50,28.86751 -49.99999,28.86751 L 71.244951,262.35756 21.244954,233.49005 V 118.02 l 49.999997,-28.867516 49.999999,-28.867512 49.99999,28.867512 50,28.867516 v 57.73503 z"
       style="opacity:0.05;fill:#ff0000;stroke:#ff0000;stroke-width:0.26294249" />
    <path
       id="path866"
       d="M 121.24495,60.284972 V 89.152484 118.02 175.75502 291.22507"
       style="fill:#ff0000;stroke:#ff0000;stroke-width:0.26458332px;stroke-linecap:butt;stroke-linejoin:miter;stroke-opacity:1" />
    <path
       id="path843"
       d="M 71.244949,89.152482 171.24494,262.35756"
       style="fill:none;stroke:#ff0000;stroke-width:0.26458332px;stroke-linecap:butt;stroke-linejoin:miter;stroke-opacity:1" />
    <path
       id="path845"
       d="M 196.24494,247.92381 21.244954,175.75502"
       style="fill:none;stroke:#ff0000;stroke-width:0.26458332px;stroke-linecap:butt;stroke-linejoin:miter;stroke-opacity:1" />
    <path
       id="path849"
       d="M 121.24495,60.284972 46.244952,247.9238"
       style="fill:none;stroke:#ff0000;stroke-width:0.26458332px;stroke-linecap:butt;stroke-linejoin:miter;stroke-opacity:1" />
    <path
       id="path857"
       d="m 21.244954,175.75502 199.999986,1e-5"
       style="fill:none;stroke:#ff0000;stroke-width:0.26458332px;stroke-linecap:butt;stroke-linejoin:miter;stroke-opacity:1" />
    <path
       id="path861"
       d="M 171.24494,262.35756 21.244954,175.75502"
       style="fill:none;stroke:#ff0000;stroke-width:0.26458332px;stroke-linecap:butt;stroke-linejoin:miter;stroke-opacity:1" />
    <path
       id="path863"
       d="M 96.244949,74.718728 221.24494,233.49005"
       style="fill:none;stroke:#ff0000;stroke-width:0.26458332px;stroke-linecap:butt;stroke-linejoin:miter;stroke-opacity:1" />
    <path
       id="path867"
       d="m 171.24494,262.35756 -25,-187.638832"
       style="fill:none;stroke:#ff0000;stroke-width:0.26458332px;stroke-linecap:butt;stroke-linejoin:miter;stroke-opacity:1" />
    <path
       id="path869"
       d="M 196.24494,103.58624 121.24495,291.22507"
       style="fill:none;stroke:#ff0000;stroke-width:0.26458332px;stroke-linecap:butt;stroke-linejoin:miter;stroke-opacity:1" />
    <path
       id="path871"
       d="M 71.244949,89.152482 V 262.35756"
       style="fill:none;stroke:#ff0000;stroke-width:0.26458332px;stroke-linecap:butt;stroke-linejoin:miter;stroke-opacity:1" />
    <path
       id="path873"
       d="M 171.24494,262.35756 V 89.152482"
       style="fill:none;stroke:#ff0000;stroke-width:0.26458332px;stroke-linecap:butt;stroke-linejoin:miter;stroke-opacity:1" />
    <path
       id="path875"
       d="M 196.24494,103.58624 H 46.244952"
       style="fill:none;stroke:#ff0000;stroke-width:0.26458332px;stroke-linecap:butt;stroke-linejoin:miter;stroke-opacity:1" />
    <path
       id="path877"
       d="M 71.244949,262.35756 171.24494,89.152482"
       style="fill:none;stroke:#ff0000;stroke-width:0.26458332px;stroke-linecap:butt;stroke-linejoin:miter;stroke-opacity:1" />
    <path
       id="path879"
       d="M 120.83095,61.422929 196.24494,247.92381"
       style="fill:none;stroke:#ff0000;stroke-width:0.26458332px;stroke-linecap:butt;stroke-linejoin:miter;stroke-opacity:1" />
  </g>
</svg>
